ETC5521 Assignment 1
…
32

processing

4

32

access

3

4.3.3 Overview of trigrams in GDPR articles

## # A tibble: 1,012 x 3
## # Groups:   article [89]
##    article trigram                           count
##      <dbl> <chr>                             <int>
##  1      60 lead supervisory authority           14
##  2      60 supervisory authorities concerned    13
##  3      47 binding corporate rules              10
##  4      56 lead supervisory authority           10
##  5      37 data protection officer               9
##  6      33 personal data breach                  8
##  7      41 competent supervisory authority       8
##  8      70 issue guidelines recommendations      8
##  9      35 data protection impact                7
## 10      35 protection impact assessment          7
## #  with 1,002 more rows
…
